^C:\USERS\ALEXANDER\SOURCE\REPOS\OPARAC3\OPARAC3\OSFILTER.CPP
C:\USERS\ALEXANDER\SOURCE\REPOS\OPARAC33\OPARAC33\DEBUG\VC142.PDB
C:\USERS\ALEXANDER\SOURCE\REPOS\OPARAC33\OPARAC33\DEBUG\VC142.IDB
C:\USERS\ALEXANDER\SOURCE\REPOS\OPARAC33\OPARAC33\DEBUG\OSFILTER.OBJ
