^C:\USERS\MIHAIL\DOWNLOADS\DESKTOP1\OS_LAB_5_3A_CLIENT\OS_LAB_5_3A_CLIENT\CLIENT.CPP
C:\USERS\MIHAIL\DOWNLOADS\DESKTOP1\OS_LAB_5_3A_CLIENT\OS_LAB_5_3A_CLIENT\DEBUG\VC142.PDB
C:\USERS\MIHAIL\DOWNLOADS\DESKTOP1\OS_LAB_5_3A_CLIENT\OS_LAB_5_3A_CLIENT\DEBUG\VC142.IDB
C:\USERS\MIHAIL\DOWNLOADS\DESKTOP1\OS_LAB_5_3A_CLIENT\OS_LAB_5_3A_CLIENT\DEBUG\CLIENT.OBJ
^C:\USERS\MIHAIL\DESKTOP\5LAB\3A\OS_LAB_5_3A_CLIENT\OS_LAB_5_3A_CLIENT\CLIENT.CPP
C:\USERS\MIHAIL\DESKTOP\5LAB\3A\OS_LAB_5_3A_CLIENT\OS_LAB_5_3A_CLIENT\DEBUG\VC142.PDB
C:\USERS\MIHAIL\DESKTOP\5LAB\3A\OS_LAB_5_3A_CLIENT\OS_LAB_5_3A_CLIENT\DEBUG\VC142.IDB
C:\USERS\MIHAIL\DESKTOP\5LAB\3A\OS_LAB_5_3A_CLIENT\OS_LAB_5_3A_CLIENT\DEBUG\CLIENT.OBJ
^C:\USERS\FEDOR\DESKTOP\OSI\INTERACTION\PIPE\5LAB\3A\OS_LAB_5_3A_CLIENT\OS_LAB_5_3A_CLIENT\CLIENT.CPP
C:\USERS\FEDOR\DESKTOP\OSI\INTERACTION\PIPE\5LAB\3A\OS_LAB_5_3A_CLIENT\OS_LAB_5_3A_CLIENT\DEBUG\VC142.PDB
C:\USERS\FEDOR\DESKTOP\OSI\INTERACTION\PIPE\5LAB\3A\OS_LAB_5_3A_CLIENT\OS_LAB_5_3A_CLIENT\DEBUG\VC142.IDB
C:\USERS\FEDOR\DESKTOP\OSI\INTERACTION\PIPE\5LAB\3A\OS_LAB_5_3A_CLIENT\OS_LAB_5_3A_CLIENT\DEBUG\CLIENT.OBJ
