^C:\USERS\FEDOR\DESKTOP\OSI\INTERACTION\PIPE\5LAB\1\OPARAC3\CHANELOS.CPP
C:\WINDOWS\GLOBALIZATION\SORTING\SORTDEFAULT.NLS
C:\PROGRAM FILES (X86)\MICROSOFT VISUAL STUDIO\2019\COMMUNITY\VC\TOOLS\MSVC\14.29.30133\BIN\HOSTX86\X64\1049\CLUI.DLL
C:\WINDOWS\SYSTEM32\TZRES.DLL
C:\PROGRAM FILES (X86)\MICROSOFT VISUAL STUDIO\2019\COMMUNITY\VC\TOOLS\MSVC\14.29.30133\INCLUDE\IOSTREAM
C:\PROGRAM FILES (X86)\MICROSOFT VISUAL STUDIO\2019\COMMUNITY\VC\TOOLS\MSVC\14.29.30133\INCLUDE\YVALS_CORE.H
C:\PROGRAM FILES (X86)\MICROSOFT VISUAL STUDIO\2019\COMMUNITY\VC\TOOLS\MSVC\14.29.30133\INCLUDE\VCRUNTIME.H
C:\PROGRAM FILES (X86)\MICROSOFT VISUAL STUDIO\2019\COMMUNITY\VC\TOOLS\MSVC\14.29.30133\INCLUDE\SAL.H
C:\PROGRAM FILES (X86)\MICROSOFT VISUAL STUDIO\2019\COMMUNITY\VC\TOOLS\MSVC\14.29.30133\INCLUDE\CONCURRENCYSAL.H
C:\PROGRAM FILES (X86)\MICROSOFT VISUAL STUDIO\2019\COMMUNITY\VC\TOOLS\MSVC\14.29.30133\INCLUDE\VADEFS.H
C:\PROGRAM FILES (X86)\MICROSOFT VISUAL STUDIO\2019\COMMUNITY\VC\TOOLS\MSVC\14.29.30133\INCLUDE\XKEYCHECK.H
C:\PROGRAM FILES (X86)\MICROSOFT VISUAL STUDIO\2019\COMMUNITY\VC\TOOLS\MSVC\14.29.30133\INCLUDE\ISTREAM
C:\PROGRAM FILES (X86)\MICROSOFT VISUAL STUDIO\2019\COMMUNITY\VC\TOOLS\MSVC\14.29.30133\INCLUDE\OSTREAM
C:\PROGRAM FILES (X86)\MICROSOFT VISUAL STUDIO\2019\COMMUNITY\VC\TOOLS\MSVC\14.29.30133\INCLUDE\IOS
C:\PROGRAM FILES (X86)\MICROSOFT VISUAL STUDIO\2019\COMMUNITY\VC\TOOLS\MSVC\14.29.30133\INCLUDE\XLOCNUM
C:\PROGRAM FILES (X86)\MICROSOFT VISUAL STUDIO\2019\COMMUNITY\VC\TOOLS\MSVC\14.29.30133\INCLUDE\CLIMITS
C:\PROGRAM FILES (X86)\MICROSOFT VISUAL STUDIO\2019\COMMUNITY\VC\TOOLS\MSVC\14.29.30133\INCLUDE\LIMITS.H
C:\PROGRAM FILES (X86)\MICROSOFT VISUAL STUDIO\2019\COMMUNITY\VC\TOOLS\MSVC\14.29.30133\INCLUDE\CMATH
C:\PROGRAM FILES (X86)\MICROSOFT VISUAL STUDIO\2019\COMMUNITY\VC\TOOLS\MSVC\14.29.30133\INCLUDE\YVALS.H
D:\WINDOWS KITS\10\INCLUDE\10.0.18362.0\UCRT\CRTDBG.H
D:\WINDOWS KITS\10\INCLUDE\10.0.18362.0\UCRT\CORECRT.H
C:\PROGRAM FILES (X86)\MICROSOFT VISUAL STUDIO\2019\COMMUNITY\VC\TOOLS\MSVC\14.29.30133\INCLUDE\VCRUNTIME_NEW_DEBUG.H
C:\PROGRAM FILES (X86)\MICROSOFT VISUAL STUDIO\2019\COMMUNITY\VC\TOOLS\MSVC\14.29.30133\INCLUDE\VCRUNTIME_NEW.H
C:\PROGRAM FILES (X86)\MICROSOFT VISUAL STUDIO\2019\COMMUNITY\VC\TOOLS\MSVC\14.29.30133\INCLUDE\CRTDEFS.H
C:\PROGRAM FILES (X86)\MICROSOFT VISUAL STUDIO\2019\COMMUNITY\VC\TOOLS\MSVC\14.29.30133\INCLUDE\USE_ANSI.H
C:\PROGRAM FILES (X86)\MICROSOFT VISUAL STUDIO\2019\COMMUNITY\VC\TOOLS\MSVC\14.29.30133\INCLUDE\CSTDLIB
D:\WINDOWS KITS\10\INCLUDE\10.0.18362.0\UCRT\MATH.H
D:\WINDOWS KITS\10\INCLUDE\10.0.18362.0\UCRT\CORECRT_MATH.H
D:\WINDOWS KITS\10\INCLUDE\10.0.18362.0\UCRT\STDLIB.H
D:\WINDOWS KITS\10\INCLUDE\10.0.18362.0\UCRT\CORECRT_MALLOC.H
D:\WINDOWS KITS\10\INCLUDE\10.0.18362.0\UCRT\CORECRT_SEARCH.H
D:\WINDOWS KITS\10\INCLUDE\10.0.18362.0\UCRT\STDDEF.H
D:\WINDOWS KITS\10\INCLUDE\10.0.18362.0\UCRT\CORECRT_WSTDLIB.H
C:\PROGRAM FILES (X86)\MICROSOFT VISUAL STUDIO\2019\COMMUNITY\VC\TOOLS\MSVC\14.29.30133\INCLUDE\XTR1COMMON
C:\PROGRAM FILES (X86)\MICROSOFT VISUAL STUDIO\2019\COMMUNITY\VC\TOOLS\MSVC\14.29.30133\INCLUDE\INTRIN0.H
C:\PROGRAM FILES (X86)\MICROSOFT VISUAL STUDIO\2019\COMMUNITY\VC\TOOLS\MSVC\14.29.30133\INCLUDE\INTRIN0.INL.H
C:\PROGRAM FILES (X86)\MICROSOFT VISUAL STUDIO\2019\COMMUNITY\VC\TOOLS\MSVC\14.29.30133\INCLUDE\CSTDIO
D:\WINDOWS KITS\10\INCLUDE\10.0.18362.0\UCRT\STDIO.H
D:\WINDOWS KITS\10\INCLUDE\10.0.18362.0\UCRT\CORECRT_WSTDIO.H
D:\WINDOWS KITS\10\INCLUDE\10.0.18362.0\UCRT\CORECRT_STDIO_CONFIG.H
C:\PROGRAM FILES (X86)\MICROSOFT VISUAL STUDIO\2019\COMMUNITY\VC\TOOLS\MSVC\14.29.30133\INCLUDE\ITERATOR
C:\PROGRAM FILES (X86)\MICROSOFT VISUAL STUDIO\2019\COMMUNITY\VC\TOOLS\MSVC\14.29.30133\INCLUDE\IOSFWD
C:\PROGRAM FILES (X86)\MICROSOFT VISUAL STUDIO\2019\COMMUNITY\VC\TOOLS\MSVC\14.29.30133\INCLUDE\CSTRING
D:\WINDOWS KITS\10\INCLUDE\10.0.18362.0\UCRT\STRING.H
D:\WINDOWS KITS\10\INCLUDE\10.0.18362.0\UCRT\CORECRT_MEMORY.H
D:\WINDOWS KITS\10\INCLUDE\10.0.18362.0\UCRT\CORECRT_MEMCPY_S.H
D:\WINDOWS KITS\10\INCLUDE\10.0.18362.0\UCRT\ERRNO.H
C:\PROGRAM FILES (X86)\MICROSOFT VISUAL STUDIO\2019\COMMUNITY\VC\TOOLS\MSVC\14.29.30133\INCLUDE\VCRUNTIME_STRING.H
D:\WINDOWS KITS\10\INCLUDE\10.0.18362.0\UCRT\CORECRT_WSTRING.H
C:\PROGRAM FILES (X86)\MICROSOFT VISUAL STUDIO\2019\COMMUNITY\VC\TOOLS\MSVC\14.29.30133\INCLUDE\CWCHAR
D:\WINDOWS KITS\10\INCLUDE\10.0.18362.0\UCRT\WCHAR.H
D:\WINDOWS KITS\10\INCLUDE\10.0.18362.0\UCRT\CORECRT_WCONIO.H
D:\WINDOWS KITS\10\INCLUDE\10.0.18362.0\UCRT\CORECRT_WCTYPE.H
D:\WINDOWS KITS\10\INCLUDE\10.0.18362.0\UCRT\CORECRT_WDIRECT.H
D:\WINDOWS KITS\10\INCLUDE\10.0.18362.0\UCRT\CORECRT_WIO.H
D:\WINDOWS KITS\10\INCLUDE\10.0.18362.0\UCRT\CORECRT_SHARE.H
D:\WINDOWS KITS\10\INCLUDE\10.0.18362.0\UCRT\CORECRT_WPROCESS.H
D:\WINDOWS KITS\10\INCLUDE\10.0.18362.0\UCRT\CORECRT_WTIME.H
D:\WINDOWS KITS\10\INCLUDE\10.0.18362.0\UCRT\SYS\STAT.H
D:\WINDOWS KITS\10\INCLUDE\10.0.18362.0\UCRT\SYS\TYPES.H
C:\PROGRAM FILES (X86)\MICROSOFT VISUAL STUDIO\2019\COMMUNITY\VC\TOOLS\MSVC\14.29.30133\INCLUDE\XSTDDEF
C:\PROGRAM FILES (X86)\MICROSOFT VISUAL STUDIO\2019\COMMUNITY\VC\TOOLS\MSVC\14.29.30133\INCLUDE\CSTDDEF
C:\PROGRAM FILES (X86)\MICROSOFT VISUAL STUDIO\2019\COMMUNITY\VC\TOOLS\MSVC\14.29.30133\INCLUDE\INITIALIZER_LIST
C:\PROGRAM FILES (X86)\MICROSOFT VISUAL STUDIO\2019\COMMUNITY\VC\TOOLS\MSVC\14.29.30133\INCLUDE\XUTILITY
C:\PROGRAM FILES (X86)\MICROSOFT VISUAL STUDIO\2019\COMMUNITY\VC\TOOLS\MSVC\14.29.30133\INCLUDE\UTILITY
C:\PROGRAM FILES (X86)\MICROSOFT VISUAL STUDIO\2019\COMMUNITY\VC\TOOLS\MSVC\14.29.30133\INCLUDE\TYPE_TRAITS
C:\PROGRAM FILES (X86)\MICROSOFT VISUAL STUDIO\2019\COMMUNITY\VC\TOOLS\MSVC\14.29.30133\INCLUDE\CSTDINT
C:\PROGRAM FILES (X86)\MICROSOFT VISUAL STUDIO\2019\COMMUNITY\VC\TOOLS\MSVC\14.29.30133\INCLUDE\STDINT.H
C:\PROGRAM FILES (X86)\MICROSOFT VISUAL STUDIO\2019\COMMUNITY\VC\TOOLS\MSVC\14.29.30133\INCLUDE\STREAMBUF
C:\PROGRAM FILES (X86)\MICROSOFT VISUAL STUDIO\2019\COMMUNITY\VC\TOOLS\MSVC\14.29.30133\INCLUDE\XIOSBASE
D:\WINDOWS KITS\10\INCLUDE\10.0.18362.0\UCRT\SHARE.H
C:\PROGRAM FILES (X86)\MICROSOFT VISUAL STUDIO\2019\COMMUNITY\VC\TOOLS\MSVC\14.29.30133\INCLUDE\SYSTEM_ERROR
C:\PROGRAM FILES (X86)\MICROSOFT VISUAL STUDIO\2019\COMMUNITY\VC\TOOLS\MSVC\14.29.30133\INCLUDE\__MSVC_SYSTEM_ERROR_ABI.HPP
C:\PROGRAM FILES (X86)\MICROSOFT VISUAL STUDIO\2019\COMMUNITY\VC\TOOLS\MSVC\14.29.30133\INCLUDE\CERRNO
C:\PROGRAM FILES (X86)\MICROSOFT VISUAL STUDIO\2019\COMMUNITY\VC\TOOLS\MSVC\14.29.30133\INCLUDE\STDEXCEPT
C:\PROGRAM FILES (X86)\MICROSOFT VISUAL STUDIO\2019\COMMUNITY\VC\TOOLS\MSVC\14.29.30133\INCLUDE\EXCEPTION
D:\WINDOWS KITS\10\INCLUDE\10.0.18362.0\UCRT\MALLOC.H
C:\PROGRAM FILES (X86)\MICROSOFT VISUAL STUDIO\2019\COMMUNITY\VC\TOOLS\MSVC\14.29.30133\INCLUDE\VCRUNTIME_EXCEPTION.H
C:\PROGRAM FILES (X86)\MICROSOFT VISUAL STUDIO\2019\COMMUNITY\VC\TOOLS\MSVC\14.29.30133\INCLUDE\EH.H
D:\WINDOWS KITS\10\INCLUDE\10.0.18362.0\UCRT\CORECRT_TERMINATE.H
C:\PROGRAM FILES (X86)\MICROSOFT VISUAL STUDIO\2019\COMMUNITY\VC\TOOLS\MSVC\14.29.30133\INCLUDE\XSTRING
C:\PROGRAM FILES (X86)\MICROSOFT VISUAL STUDIO\2019\COMMUNITY\VC\TOOLS\MSVC\14.29.30133\INCLUDE\XMEMORY
C:\PROGRAM FILES (X86)\MICROSOFT VISUAL STUDIO\2019\COMMUNITY\VC\TOOLS\MSVC\14.29.30133\INCLUDE\LIMITS
C:\PROGRAM FILES (X86)\MICROSOFT VISUAL STUDIO\2019\COMMUNITY\VC\TOOLS\MSVC\14.29.30133\INCLUDE\CFLOAT
D:\WINDOWS KITS\10\INCLUDE\10.0.18362.0\UCRT\FLOAT.H
C:\PROGRAM FILES (X86)\MICROSOFT VISUAL STUDIO\2019\COMMUNITY\VC\TOOLS\MSVC\14.29.30133\INCLUDE\ISA_AVAILABILITY.H
C:\PROGRAM FILES (X86)\MICROSOFT VISUAL STUDIO\2019\COMMUNITY\VC\TOOLS\MSVC\14.29.30133\INCLUDE\NEW
C:\PROGRAM FILES (X86)\MICROSOFT VISUAL STUDIO\2019\COMMUNITY\VC\TOOLS\MSVC\14.29.30133\INCLUDE\XATOMIC.H
C:\PROGRAM FILES (X86)\MICROSOFT VISUAL STUDIO\2019\COMMUNITY\VC\TOOLS\MSVC\14.29.30133\INCLUDE\XCALL_ONCE.H
C:\PROGRAM FILES (X86)\MICROSOFT VISUAL STUDIO\2019\COMMUNITY\VC\TOOLS\MSVC\14.29.30133\INCLUDE\XERRC.H
C:\PROGRAM FILES (X86)\MICROSOFT VISUAL STUDIO\2019\COMMUNITY\VC\TOOLS\MSVC\14.29.30133\INCLUDE\ATOMIC
C:\PROGRAM FILES (X86)\MICROSOFT VISUAL STUDIO\2019\COMMUNITY\VC\TOOLS\MSVC\14.29.30133\INCLUDE\XTHREADS.H
C:\PROGRAM FILES (X86)\MICROSOFT VISUAL STUDIO\2019\COMMUNITY\VC\TOOLS\MSVC\14.29.30133\INCLUDE\XTIMEC.H
C:\PROGRAM FILES (X86)\MICROSOFT VISUAL STUDIO\2019\COMMUNITY\VC\TOOLS\MSVC\14.29.30133\INCLUDE\CTIME
D:\WINDOWS KITS\10\INCLUDE\10.0.18362.0\UCRT\TIME.H
C:\PROGRAM FILES (X86)\MICROSOFT VISUAL STUDIO\2019\COMMUNITY\VC\TOOLS\MSVC\14.29.30133\INCLUDE\XLOCALE
C:\PROGRAM FILES (X86)\MICROSOFT VISUAL STUDIO\2019\COMMUNITY\VC\TOOLS\MSVC\14.29.30133\INCLUDE\MEMORY
C:\PROGRAM FILES (X86)\MICROSOFT VISUAL STUDIO\2019\COMMUNITY\VC\TOOLS\MSVC\14.29.30133\INCLUDE\TYPEINFO
C:\PROGRAM FILES (X86)\MICROSOFT VISUAL STUDIO\2019\COMMUNITY\VC\TOOLS\MSVC\14.29.30133\INCLUDE\VCRUNTIME_TYPEINFO.H
C:\PROGRAM FILES (X86)\MICROSOFT VISUAL STUDIO\2019\COMMUNITY\VC\TOOLS\MSVC\14.29.30133\INCLUDE\XFACET
C:\PROGRAM FILES (X86)\MICROSOFT VISUAL STUDIO\2019\COMMUNITY\VC\TOOLS\MSVC\14.29.30133\INCLUDE\XLOCINFO
C:\PROGRAM FILES (X86)\MICROSOFT VISUAL STUDIO\2019\COMMUNITY\VC\TOOLS\MSVC\14.29.30133\INCLUDE\XLOCINFO.H
C:\PROGRAM FILES (X86)\MICROSOFT VISUAL STUDIO\2019\COMMUNITY\VC\TOOLS\MSVC\14.29.30133\INCLUDE\CCTYPE
D:\WINDOWS KITS\10\INCLUDE\10.0.18362.0\UCRT\CTYPE.H
C:\PROGRAM FILES (X86)\MICROSOFT VISUAL STUDIO\2019\COMMUNITY\VC\TOOLS\MSVC\14.29.30133\INCLUDE\CLOCALE
D:\WINDOWS KITS\10\INCLUDE\10.0.18362.0\UCRT\LOCALE.H
C:\PROGRAM FILES (X86)\MICROSOFT VISUAL STUDIO\2019\COMMUNITY\VC\TOOLS\MSVC\14.29.30133\INCLUDE\FSTREAM
C:\PROGRAM FILES (X86)\MICROSOFT VISUAL STUDIO\2019\COMMUNITY\VC\TOOLS\MSVC\14.29.30133\INCLUDE\STRING
D:\WINDOWS KITS\10\INCLUDE\10.0.18362.0\UM\WINDOWS.H
D:\WINDOWS KITS\10\INCLUDE\10.0.18362.0\SHARED\WINAPIFAMILY.H
D:\WINDOWS KITS\10\INCLUDE\10.0.18362.0\SHARED\WINPACKAGEFAMILY.H
D:\WINDOWS KITS\10\INCLUDE\10.0.18362.0\SHARED\SDKDDKVER.H
C:\PROGRAM FILES (X86)\MICROSOFT VISUAL STUDIO\2019\COMMUNITY\VC\TOOLS\MSVC\14.29.30133\INCLUDE\EXCPT.H
C:\PROGRAM FILES (X86)\MICROSOFT VISUAL STUDIO\2019\COMMUNITY\VC\TOOLS\MSVC\14.29.30133\INCLUDE\STDARG.H
D:\WINDOWS KITS\10\INCLUDE\10.0.18362.0\SHARED\WINDEF.H
D:\WINDOWS KITS\10\INCLUDE\10.0.18362.0\SHARED\MINWINDEF.H
D:\WINDOWS KITS\10\INCLUDE\10.0.18362.0\SHARED\SPECSTRINGS.H
D:\WINDOWS KITS\10\INCLUDE\10.0.18362.0\SHARED\SPECSTRINGS_STRICT.H
D:\WINDOWS KITS\10\INCLUDE\10.0.18362.0\SHARED\SPECSTRINGS_UNDEF.H
D:\WINDOWS KITS\10\INCLUDE\10.0.18362.0\SHARED\DRIVERSPECS.H
D:\WINDOWS KITS\10\INCLUDE\10.0.18362.0\SHARED\SDV_DRIVERSPECS.H
D:\WINDOWS KITS\10\INCLUDE\10.0.18362.0\UM\WINNT.H
D:\WINDOWS KITS\10\INCLUDE\10.0.18362.0\SHARED\KERNELSPECS.H
D:\WINDOWS KITS\10\INCLUDE\10.0.18362.0\SHARED\BASETSD.H
D:\WINDOWS KITS\10\INCLUDE\10.0.18362.0\SHARED\GUIDDEF.H
D:\WINDOWS KITS\10\INCLUDE\10.0.18362.0\SHARED\PSHPACK4.H
D:\WINDOWS KITS\10\INCLUDE\10.0.18362.0\SHARED\POPPACK.H
D:\WINDOWS KITS\10\INCLUDE\10.0.18362.0\SHARED\PSHPACK2.H
D:\WINDOWS KITS\10\INCLUDE\10.0.18362.0\SHARED\PSHPACK8.H
D:\WINDOWS KITS\10\INCLUDE\10.0.18362.0\SHARED\PSHPACK1.H
D:\WINDOWS KITS\10\INCLUDE\10.0.18362.0\SHARED\APISET.H
D:\WINDOWS KITS\10\INCLUDE\10.0.18362.0\SHARED\KTMTYPES.H
D:\WINDOWS KITS\10\INCLUDE\10.0.18362.0\UM\WINBASE.H
D:\WINDOWS KITS\10\INCLUDE\10.0.18362.0\SHARED\APISETCCONV.H
D:\WINDOWS KITS\10\INCLUDE\10.0.18362.0\UM\MINWINBASE.H
D:\WINDOWS KITS\10\INCLUDE\10.0.18362.0\UM\APIQUERY2.H
D:\WINDOWS KITS\10\INCLUDE\10.0.18362.0\UM\PROCESSENV.H
D:\WINDOWS KITS\10\INCLUDE\10.0.18362.0\UM\FILEAPIFROMAPP.H
D:\WINDOWS KITS\10\INCLUDE\10.0.18362.0\UM\FILEAPI.H
D:\WINDOWS KITS\10\INCLUDE\10.0.18362.0\UM\DEBUGAPI.H
D:\WINDOWS KITS\10\INCLUDE\10.0.18362.0\UM\UTILAPISET.H
D:\WINDOWS KITS\10\INCLUDE\10.0.18362.0\UM\HANDLEAPI.H
D:\WINDOWS KITS\10\INCLUDE\10.0.18362.0\UM\ERRHANDLINGAPI.H
D:\WINDOWS KITS\10\INCLUDE\10.0.18362.0\UM\FIBERSAPI.H
D:\WINDOWS KITS\10\INCLUDE\10.0.18362.0\UM\NAMEDPIPEAPI.H
D:\WINDOWS KITS\10\INCLUDE\10.0.18362.0\UM\PROFILEAPI.H
D:\WINDOWS KITS\10\INCLUDE\10.0.18362.0\UM\HEAPAPI.H
D:\WINDOWS KITS\10\INCLUDE\10.0.18362.0\UM\IOAPISET.H
D:\WINDOWS KITS\10\INCLUDE\10.0.18362.0\UM\SYNCHAPI.H
D:\WINDOWS KITS\10\INCLUDE\10.0.18362.0\UM\INTERLOCKEDAPI.H
D:\WINDOWS KITS\10\INCLUDE\10.0.18362.0\UM\PROCESSTHREADSAPI.H
D:\WINDOWS KITS\10\INCLUDE\10.0.18362.0\UM\SYSINFOAPI.H
D:\WINDOWS KITS\10\INCLUDE\10.0.18362.0\UM\MEMORYAPI.H
D:\WINDOWS KITS\10\INCLUDE\10.0.18362.0\UM\ENCLAVEAPI.H
D:\WINDOWS KITS\10\INCLUDE\10.0.18362.0\UM\THREADPOOLLEGACYAPISET.H
D:\WINDOWS KITS\10\INCLUDE\10.0.18362.0\UM\THREADPOOLAPISET.H
D:\WINDOWS KITS\10\INCLUDE\10.0.18362.0\UM\JOBAPI.H
D:\WINDOWS KITS\10\INCLUDE\10.0.18362.0\UM\JOBAPI2.H
D:\WINDOWS KITS\10\INCLUDE\10.0.18362.0\UM\WOW64APISET.H
D:\WINDOWS KITS\10\INCLUDE\10.0.18362.0\UM\LIBLOADERAPI.H
D:\WINDOWS KITS\10\INCLUDE\10.0.18362.0\UM\SECURITYBASEAPI.H
D:\WINDOWS KITS\10\INCLUDE\10.0.18362.0\UM\NAMESPACEAPI.H
D:\WINDOWS KITS\10\INCLUDE\10.0.18362.0\UM\SYSTEMTOPOLOGYAPI.H
D:\WINDOWS KITS\10\INCLUDE\10.0.18362.0\UM\PROCESSTOPOLOGYAPI.H
D:\WINDOWS KITS\10\INCLUDE\10.0.18362.0\UM\SECURITYAPPCONTAINER.H
D:\WINDOWS KITS\10\INCLUDE\10.0.18362.0\UM\REALTIMEAPISET.H
D:\WINDOWS KITS\10\INCLUDE\10.0.18362.0\SHARED\WINERROR.H
D:\WINDOWS KITS\10\INCLUDE\10.0.18362.0\UM\TIMEZONEAPI.H
D:\WINDOWS KITS\10\INCLUDE\10.0.18362.0\UM\WINGDI.H
D:\WINDOWS KITS\10\INCLUDE\10.0.18362.0\UM\WINUSER.H
D:\WINDOWS KITS\10\INCLUDE\10.0.18362.0\SHARED\TVOUT.H
D:\WINDOWS KITS\10\INCLUDE\10.0.18362.0\UM\WINNLS.H
D:\WINDOWS KITS\10\INCLUDE\10.0.18362.0\UM\DATETIMEAPI.H
D:\WINDOWS KITS\10\INCLUDE\10.0.18362.0\UM\STRINGAPISET.H
D:\WINDOWS KITS\10\INCLUDE\10.0.18362.0\UM\WINCON.H
D:\WINDOWS KITS\10\INCLUDE\10.0.18362.0\UM\WINCONTYPES.H
D:\WINDOWS KITS\10\INCLUDE\10.0.18362.0\UM\CONSOLEAPI.H
D:\WINDOWS KITS\10\INCLUDE\10.0.18362.0\UM\CONSOLEAPI2.H
D:\WINDOWS KITS\10\INCLUDE\10.0.18362.0\UM\CONSOLEAPI3.H
D:\WINDOWS KITS\10\INCLUDE\10.0.18362.0\UM\WINVER.H
D:\WINDOWS KITS\10\INCLUDE\10.0.18362.0\UM\VERRSRC.H
D:\WINDOWS KITS\10\INCLUDE\10.0.18362.0\UM\WINREG.H
D:\WINDOWS KITS\10\INCLUDE\10.0.18362.0\UM\REASON.H
D:\WINDOWS KITS\10\INCLUDE\10.0.18362.0\UM\WINNETWK.H
D:\WINDOWS KITS\10\INCLUDE\10.0.18362.0\SHARED\WNNC.H
D:\WINDOWS KITS\10\INCLUDE\10.0.18362.0\SHARED\CDERR.H
D:\WINDOWS KITS\10\INCLUDE\10.0.18362.0\UM\DDE.H
D:\WINDOWS KITS\10\INCLUDE\10.0.18362.0\UM\DDEML.H
D:\WINDOWS KITS\10\INCLUDE\10.0.18362.0\UM\DLGS.H
D:\WINDOWS KITS\10\INCLUDE\10.0.18362.0\UM\LZEXPAND.H
D:\WINDOWS KITS\10\INCLUDE\10.0.18362.0\UM\MMSYSTEM.H
D:\WINDOWS KITS\10\INCLUDE\10.0.18362.0\UM\MMSYSCOM.H
D:\WINDOWS KITS\10\INCLUDE\10.0.18362.0\UM\MCIAPI.H
D:\WINDOWS KITS\10\INCLUDE\10.0.18362.0\UM\MMISCAPI.H
D:\WINDOWS KITS\10\INCLUDE\10.0.18362.0\UM\MMISCAPI2.H
D:\WINDOWS KITS\10\INCLUDE\10.0.18362.0\UM\PLAYSOUNDAPI.H
D:\WINDOWS KITS\10\INCLUDE\10.0.18362.0\UM\MMEAPI.H
D:\WINDOWS KITS\10\INCLUDE\10.0.18362.0\UM\TIMEAPI.H
D:\WINDOWS KITS\10\INCLUDE\10.0.18362.0\UM\JOYSTICKAPI.H
D:\WINDOWS KITS\10\INCLUDE\10.0.18362.0\UM\NB30.H
D:\WINDOWS KITS\10\INCLUDE\10.0.18362.0\SHARED\RPC.H
D:\WINDOWS KITS\10\INCLUDE\10.0.18362.0\SHARED\RPCDCE.H
D:\WINDOWS KITS\10\INCLUDE\10.0.18362.0\SHARED\RPCDCEP.H
D:\WINDOWS KITS\10\INCLUDE\10.0.18362.0\UM\RPCNSI.H
D:\WINDOWS KITS\10\INCLUDE\10.0.18362.0\SHARED\RPCNTERR.H
D:\WINDOWS KITS\10\INCLUDE\10.0.18362.0\SHARED\RPCASYNC.H
D:\WINDOWS KITS\10\INCLUDE\10.0.18362.0\UM\SHELLAPI.H
D:\WINDOWS KITS\10\INCLUDE\10.0.18362.0\UM\WINPERF.H
D:\WINDOWS KITS\10\INCLUDE\10.0.18362.0\UM\WINSOCK.H
D:\WINDOWS KITS\10\INCLUDE\10.0.18362.0\SHARED\INADDR.H
D:\WINDOWS KITS\10\INCLUDE\10.0.18362.0\UM\WINCRYPT.H
D:\WINDOWS KITS\10\INCLUDE\10.0.18362.0\SHARED\BCRYPT.H
D:\WINDOWS KITS\10\INCLUDE\10.0.18362.0\UM\NCRYPT.H
D:\WINDOWS KITS\10\INCLUDE\10.0.18362.0\UM\DPAPI.H
D:\WINDOWS KITS\10\INCLUDE\10.0.18362.0\UM\WINEFS.H
D:\WINDOWS KITS\10\INCLUDE\10.0.18362.0\UM\WINSCARD.H
D:\WINDOWS KITS\10\INCLUDE\10.0.18362.0\SHARED\WTYPES.H
D:\WINDOWS KITS\10\INCLUDE\10.0.18362.0\SHARED\RPCNDR.H
D:\WINDOWS KITS\10\INCLUDE\10.0.18362.0\UM\RPCNSIP.H
D:\WINDOWS KITS\10\INCLUDE\10.0.18362.0\SHARED\RPCSAL.H
D:\WINDOWS KITS\10\INCLUDE\10.0.18362.0\SHARED\WTYPESBASE.H
D:\WINDOWS KITS\10\INCLUDE\10.0.18362.0\UM\WINIOCTL.H
D:\WINDOWS KITS\10\INCLUDE\10.0.18362.0\SHARED\WINSMCRD.H
D:\WINDOWS KITS\10\INCLUDE\10.0.18362.0\UM\WINSPOOL.H
D:\WINDOWS KITS\10\INCLUDE\10.0.18362.0\UM\PRSHT.H
D:\WINDOWS KITS\10\INCLUDE\10.0.18362.0\UM\OLE2.H
D:\WINDOWS KITS\10\INCLUDE\10.0.18362.0\UM\OBJBASE.H
D:\WINDOWS KITS\10\INCLUDE\10.0.18362.0\UM\COMBASEAPI.H
D:\WINDOWS KITS\10\INCLUDE\10.0.18362.0\UM\UNKNWNBASE.H
D:\WINDOWS KITS\10\INCLUDE\10.0.18362.0\UM\OBJIDLBASE.H
D:\WINDOWS KITS\10\INCLUDE\10.0.18362.0\UM\CGUID.H
D:\WINDOWS KITS\10\INCLUDE\10.0.18362.0\UM\COML2API.H
D:\WINDOWS KITS\10\INCLUDE\10.0.18362.0\UM\OBJIDL.H
D:\WINDOWS KITS\10\INCLUDE\10.0.18362.0\UM\UNKNWN.H
D:\WINDOWS KITS\10\INCLUDE\10.0.18362.0\UM\PROPIDLBASE.H
D:\WINDOWS KITS\10\INCLUDE\10.0.18362.0\UM\OAIDL.H
D:\WINDOWS KITS\10\INCLUDE\10.0.18362.0\UM\URLMON.H
D:\WINDOWS KITS\10\INCLUDE\10.0.18362.0\UM\OLEIDL.H
D:\WINDOWS KITS\10\INCLUDE\10.0.18362.0\UM\SERVPROV.H
D:\WINDOWS KITS\10\INCLUDE\10.0.18362.0\UM\MSXML.H
D:\WINDOWS KITS\10\INCLUDE\10.0.18362.0\UM\PROPIDL.H
D:\WINDOWS KITS\10\INCLUDE\10.0.18362.0\UM\OLEAUTO.H
D:\WINDOWS KITS\10\INCLUDE\10.0.18362.0\UM\COMMDLG.H
D:\WINDOWS KITS\10\INCLUDE\10.0.18362.0\SHARED\STRALIGN.H
D:\WINDOWS KITS\10\INCLUDE\10.0.18362.0\UM\WINSVC.H
D:\WINDOWS KITS\10\INCLUDE\10.0.18362.0\UM\MCX.H
D:\WINDOWS KITS\10\INCLUDE\10.0.18362.0\UM\IMM.H
D:\WINDOWS KITS\10\INCLUDE\10.0.18362.0\UM\IME_CMODES.H
