^C:\USERS\MIHAIL\DOWNLOADS\OPARAC32\OPARAC32\CHANELOS2.CPP
C:\USERS\MIHAIL\DOWNLOADS\OPARAC32\OPARAC32\DEBUG\VC142.PDB
C:\USERS\MIHAIL\DOWNLOADS\OPARAC32\OPARAC32\DEBUG\VC142.IDB
C:\USERS\MIHAIL\DOWNLOADS\OPARAC32\OPARAC32\DEBUG\CHANELOS2.OBJ
