^C:\USERS\ALEXANDER\SOURCE\REPOS\OPARAC32\OPARAC32\DEBUG\CHANELOS2.OBJ
/OUT:"C:\USERS\ALEXANDER\SOURCE\REPOS\OPARAC32\DEBUG\OPARAC32.EXE" /INCREMENTAL /NOLOGO KERNEL32.LIB USER32.LIB GDI32.LIB WINSPOOL.LIB COMDLG32.LIB ADVAPI32.LIB SHELL32.LIB OLE32.LIB OLEAUT32.LIB UUID.LIB ODBC32.LIB ODBCCP32.LIB /MANIFEST /MANIFESTUAC:"level='asInvoker' uiAccess='false'" /manifest:embed /DEBUG:FASTLINK /PDB:"C:\USERS\ALEXANDER\SOURCE\REPOS\OPARAC32\DEBUG\OPARAC32.PDB" /SUBSYSTEM:CONSOLE /TLBID:1 /DYNAMICBASE /NXCOMPAT /IMPLIB:"C:\USERS\ALEXANDER\SOURCE\REPOS\OPARAC32\DEBUG\OPARAC32.LIB" /MACHINE:X86 DEBUG\CHANELOS2.OBJ
^C:\USERS\MIHAIL\DOWNLOADS\OPARAC32\OPARAC32\DEBUG\CHANELOS2.OBJ
/OUT:"C:\USERS\MIHAIL\DOWNLOADS\OPARAC32\DEBUG\OPARAC32.EXE" /INCREMENTAL /ILK:"DEBUG\OPARAC32.ILK" /NOLOGO KERNEL32.LIB USER32.LIB GDI32.LIB WINSPOOL.LIB COMDLG32.LIB ADVAPI32.LIB SHELL32.LIB OLE32.LIB OLEAUT32.LIB UUID.LIB ODBC32.LIB ODBCCP32.LIB /MANIFEST /MANIFESTUAC:"level='asInvoker' uiAccess='false'" /manifest:embed /DEBUG:FULL /PDB:"C:\USERS\MIHAIL\DOWNLOADS\OPARAC32\DEBUG\OPARAC32.PDB" /SUBSYSTEM:CONSOLE /TLBID:1 /DYNAMICBASE /NXCOMPAT /IMPLIB:"C:\USERS\MIHAIL\DOWNLOADS\OPARAC32\DEBUG\OPARAC32.LIB" /MACHINE:X86 DEBUG\CHANELOS2.OBJ
