^C:\USERS\MIHAIL\DOWNLOADS\OPARAC3\OPARAC3\DEBUG\CHANELOS.OBJ
C:\USERS\MIHAIL\DOWNLOADS\OPARAC3\DEBUG\OPARAC3.EXE
C:\USERS\MIHAIL\DOWNLOADS\OPARAC3\OPARAC3\DEBUG\OPARAC3.ILK
C:\USERS\MIHAIL\DOWNLOADS\OPARAC3\DEBUG\OPARAC3.PDB
